[
    {
        "id": "nan_integrated_thick_skin",
        "type": "ARMOR",
		"category": "armor",
		"name": { "str": "thick skin" },
		"description": "A very thick, yet loose layer of skin that covers your torso.",
		"weight": "1 kg",
		"volume": "1 L",
		"price": 0,
		"price_postapoc": 0,
		"material": [ "nan_mut_thick_skin" ],
		"symbol": "x",
		"color": "dark_gray",
		"warmth": 45,
		"environmental_protection": 1,
		"flags": [ "INTEGRATED", "ALLOWS_NATURAL_ATTACKS", "UNBREAKABLE", "NORMAL", "WATER_FRIENDLY", "SOFT" ],
		"armor": [
		  {
			"material": [ { "type": "nan_mut_thick_skin", "covered_by_mat": 100, "thickness": 12 } ],
			"covers": [ "torso" ],
			"coverage": 90,
			"encumbrance": 1
		  },
		]
	},
	{
        "id": "nan_integrated_hydrophobic_fur",
        "type": "ARMOR",
		"category": "armor",
		"name": { "str": "hydrophobic fur" },
		"description": "A dense fur perfect for swimming.",
		"weight": "850 g",
		"volume": "850 ml",
		"price": 0,
		"price_postapoc": 0,
		"material": [ "nan_hydro_mutant_fur" ],
		"symbol": "x",
		"color": "brown",
		"warmth": 45,
		"environmental_protection": 1,
		"flags": [ "INTEGRATED", "ALLOWS_NATURAL_ATTACKS", "UNBREAKABLE", "NORMAL", "WATER_FRIENDLY", "SOFT" ],
		"armor": [
			{
				"material": [ { "type": "nan_hydro_mutant_fur", "covered_by_mat": 100, "thickness": 5 } ],
				"covers": [ "leg_l", "leg_r", "arm_l", "arm_r", "torso" ],
				"coverage": 100,
				"encumbrance": 0
			},
			{
				"material": [ { "type": "nan_hydro_mutant_fur", "covered_by_mat": 100, "thickness": 3 } ],
				"covers": [ "hand_l", "hand_r", "foot_l", "foot_r", "head" ],
				"coverage": 100,
				"encumbrance": 0
			},
			{
				"material": [ { "type": "nan_hydro_mutant_fur", "covered_by_mat": 100, "thickness": 2 } ],
				"covers": [ "mouth" ],
				"coverage": 85,
				"encumbrance": 0
			}
		]
	}
	
]